<?xml version="1.0" encoding="UTF-8" standalone="no"?>
<svg
   height="40"
   viewBox="0 -960 800 800"
   width="40"
   version="1.1"
   id="svg4224"
   sodipodi:docname="counter_0_FILL0_wght400_GRAD0_opsz48.svg"
   xmlns:inkscape="http://www.inkscape.org/namespaces/inkscape"
   xmlns:sodipodi="http://sodipodi.sourceforge.net/DTD/sodipodi-0.dtd"
   xmlns="http://www.w3.org/2000/svg"
   xmlns:svg="http://www.w3.org/2000/svg">
  <defs
     id="defs4228" />
  <sodipodi:namedview
     id="namedview4226"
     pagecolor="#505050"
     bordercolor="#ffffff"
     borderopacity="1"
     inkscape:showpageshadow="0"
     inkscape:pageopacity="0"
     inkscape:pagecheckerboard="1"
     inkscape:deskcolor="#505050"
     showgrid="false" />
  <path
     d="m 400.266,-160 q -82.734,0 -155.5,-31.5 Q 172,-223 117.5,-277.5 63,-332 31.5,-404.841 0,-477.681 0,-560.5 0,-643.319 31.5,-716.159 63,-789 117.5,-843 172,-897 244.841,-928.5 317.681,-960 400.5,-960 q 82.819,0 155.659,31.5 Q 629,-897 683,-843 q 54,54 85.5,127 31.5,73 31.5,155.734 0,82.734 -31.5,155.5 Q 737,-332 683,-277.684 q -54,54.316 -127,86 Q 483,-160 400.266,-160 Z m 0.234,-60 q 141.5,0 240.5,-99.5 99,-99.5 99,-241 Q 740,-702 641.188,-801 542.375,-900 400,-900 259,-900 159.5,-801.188 60,-702.375 60,-560 q 0,141 99.5,240.5 99.5,99.5 241,99.5 z M 400,-560 Z m -55,213 h 110 q 24.75,0 42.375,-17.625 Q 515,-382.25 515,-407 v -307 q 0,-24.75 -17.625,-42.375 Q 479.75,-774 455,-774 H 345 q -24.75,0 -42.375,17.625 Q 285,-738.75 285,-714 v 307 q 0,24.75 17.625,42.375 Q 320.25,-347 345,-347 Z m 0,-367 h 110 v 307 H 345 Z"
     id="path4222"
     style="fill:#ffffff;fill-opacity:1" />
</svg>
